[gd_resource type="StyleBoxFlat" format=2]

[resource]
bg_color = Color( 0.956863, 0.984314, 1, 1 )
border_width_left = 8
border_width_top = 8
border_width_right = 8
border_width_bottom = 8
border_color = Color( 0, 0, 0, 1 )
corner_radius_top_left = 16
corner_radius_top_right = 16
corner_radius_bottom_right = 16
corner_radius_bottom_left = 16
