[gd_resource type="StyleBoxFlat" format=2]

[resource]
bg_color = Color( 1, 0.929412, 0.682353, 1 )
border_width_left = 5
border_width_top = 5
border_width_right = 5
border_width_bottom = 5
border_color = Color( 0, 0, 0, 1 )
corner_radius_top_left = 8
corner_radius_top_right = 8
corner_radius_bottom_right = 8
corner_radius_bottom_left = 8
shadow_color = Color( 0, 0, 0, 0.498039 )
shadow_size = 2
shadow_offset = Vector2( 5, 5 )
