[gd_scene load_steps=4 format=2]

[ext_resource path="res://GUI/Theme/MainTheme.tres" type="Theme" id=1]
[ext_resource path="res://Game/Card/Card.tscn" type="PackedScene" id=2]
[ext_resource path="res://Game/SelectCards/SelectCards.gd" type="Script" id=3]

[node name="SelectCards" type="PopupPanel"]
anchor_right = 1.0
anchor_bottom = 1.0
margin_right = 40.0
margin_bottom = 40.0
theme = ExtResource( 1 )
script = ExtResource( 3 )
__meta__ = {
"_edit_use_anchors_": false
}

[node name="MarginContainer" type="CenterContainer" parent="."]
margin_right = 1960.0
margin_bottom = 1120.0
__meta__ = {
"_edit_use_anchors_": false
}

[node name="CardsContainer" type="HBoxContainer" parent="MarginContainer"]
margin_left = 405.0
margin_top = 310.0
margin_right = 1555.0
margin_bottom = 810.0
custom_constants/separation = 50

[node name="Card1" parent="MarginContainer/CardsContainer" instance=ExtResource( 2 )]
margin_right = 350.0
margin_bottom = 500.0

[node name="Card2" parent="MarginContainer/CardsContainer" instance=ExtResource( 2 )]
margin_left = 400.0
margin_right = 750.0
margin_bottom = 500.0

[node name="Card3" parent="MarginContainer/CardsContainer" instance=ExtResource( 2 )]
margin_left = 800.0
margin_right = 1150.0
margin_bottom = 500.0
