[gd_scene load_steps=2 format=2]

[ext_resource path="res://GUI/Theme/MainTheme.tres" type="Theme" id=1]

[node name="BackButton" type="Button"]
margin_right = 256.0
margin_bottom = 256.0
rect_scale = Vector2( 0.5, 0.5 )
theme = ExtResource( 1 )
text = "<"
clip_text = true
__meta__ = {
"_edit_use_anchors_": false
}
